{
	"keywords": [
		"watson", 
		"ai", 
		"intelligence", 
		"vr", 
		"virtual",
		"reality", 
		"newest", 
		"future", 
		"innovation",
		"discovery",
		"curate",
		"wearable",
		"machine", 
		"learning"
	],
	"keywords_reject": [],
	"link_reject" : ["akqa", "tel:", "youtu", "mailto"]
}